module test

go 1.17

require (
	github.com/amenzhinsky/go-memexec v0.5.0
	github.com/schollz/progressbar/v3 v3.8.3
)

require (
	github.com/mattn/go-runewidth v0.0.13 // indirect
	github.com/mitchellh/colorstring v0.0.0-20190213212951-d06e56a500db // indirect
	github.com/rivo/uniseg v0.2.0 // indirect
	golang.org/x/crypto v0.0.0-20210817164053-32db794688a5 // indirect
	golang.org/x/sys v0.0.0-20210910150752-751e447fb3d0 // indirect
	golang.org/x/term v0.0.0-20210615171337-6886f2dfbf5b // indirect
)
